<?xml version="1.0" encoding="UTF-8" standalone="no"?>
<!-- Created with Inkscape (http://www.inkscape.org/) -->

<svg
   xmlns:dc="http://purl.org/dc/elements/1.1/"
   xmlns:cc="http://creativecommons.org/ns#"
   xmlns:rdf="http://www.w3.org/1999/02/22-rdf-syntax-ns#"
   xmlns:svg="http://www.w3.org/2000/svg"
   xmlns="http://www.w3.org/2000/svg"
   xmlns:sodipodi="http://sodipodi.sourceforge.net/DTD/sodipodi-0.dtd"
   xmlns:inkscape="http://www.inkscape.org/namespaces/inkscape"
   width="50mm"
   height="50mm"
   viewBox="0 0 177.16535 177.16534"
   id="svg5414"
   version="1.1"
   inkscape:version="0.91 r13725"
   sodipodi:docname="icon_menu_distance_off.svg">
  <defs
     id="defs5416" />
  <sodipodi:namedview
     id="base"
     pagecolor="#ffffff"
     bordercolor="#666666"
     borderopacity="1.0"
     inkscape:pageopacity="0.0"
     inkscape:pageshadow="2"
     inkscape:zoom="0.98994949"
     inkscape:cx="254.91876"
     inkscape:cy="165.36373"
     inkscape:document-units="px"
     inkscape:current-layer="layer1-0"
     showgrid="false"
     fit-margin-top="0"
     fit-margin-left="0"
     fit-margin-right="0"
     fit-margin-bottom="0"
     inkscape:window-width="1680"
     inkscape:window-height="987"
     inkscape:window-x="-8"
     inkscape:window-y="24"
     inkscape:window-maximized="1" />
  <metadata
     id="metadata5419">
    <rdf:RDF>
      <cc:Work
         rdf:about="">
        <dc:format>image/svg+xml</dc:format>
        <dc:type
           rdf:resource="http://purl.org/dc/dcmitype/StillImage" />
        <dc:title />
      </cc:Work>
    </rdf:RDF>
  </metadata>
  <g
     inkscape:label="Laag 1"
     inkscape:groupmode="layer"
     id="layer1"
     transform="translate(-7.1785493,127.50126)">
    <g
       id="g14926"
       style="fill:#ff6600"
       transform="matrix(0.70222302,0,0,0.70222302,-684.67926,1999.7112)">
      <g
         transform="matrix(1.424049,0,0,1.424049,521.44526,-2847.9631)"
         id="layer1-4"
         inkscape:label="Laag 1">
        <g
           transform="matrix(9.8819836,0,0,9.8819836,254.15048,-442.47261)"
           id="layer1-0"
           inkscape:label="Laag 1">
          <path
             style="color:#000000;font-style:normal;font-variant:normal;font-weight:normal;font-stretch:normal;font-size:medium;line-height:normal;font-family:sans-serif;text-indent:0;text-align:start;text-decoration:none;text-decoration-line:none;text-decoration-style:solid;text-decoration-color:#000000;letter-spacing:normal;word-spacing:normal;text-transform:none;direction:ltr;block-progression:tb;writing-mode:lr-tb;baseline-shift:baseline;text-anchor:start;white-space:normal;clip-rule:nonzero;display:inline;overflow:visible;visibility:visible;opacity:1;isolation:auto;mix-blend-mode:normal;color-interpolation:sRGB;color-interpolation-filters:linearRGB;solid-color:#000000;solid-opacity:1;fill:#cccccc;fill-opacity:1;fill-rule:nonzero;stroke:none;stroke-width:0.60716546;stroke-linecap:round;stroke-linejoin:round;stroke-miterlimit:4;stroke-dasharray:none;stroke-dashoffset:0;stroke-opacity:1;color-rendering:auto;image-rendering:auto;shape-rendering:auto;text-rendering:auto;enable-background:accumulate"
             d="M 135.84375 111.41211 L 149.80469 111.45898 L 110.19922 148.1875 L 28.054688 148.07227 L 40.738281 136.30078 C 39.616044 134.90384 38.414811 133.20943 37.189453 131.41602 L 18.404297 148.84375 A 3.0003 3.0003 0 0 0 20.431641 154.05469 L 111.37695 154.18945 A 3.0003 3.0003 0 0 0 113.42188 153.39844 L 159.45508 110.66797 A 3.0003 3.0003 0 0 0 157.42773 105.47461 L 139.82422 105.41797 C 138.45397 107.64375 137.07398 109.8076 135.84375 111.41211 z "
             id="path4299"
             transform="matrix(0.10119425,0,0,0.10119425,7.2390798,31.892929)" />
          <path
             style="color:#000000;font-style:normal;font-variant:normal;font-weight:normal;font-stretch:normal;font-size:medium;line-height:normal;font-family:sans-serif;text-indent:0;text-align:start;text-decoration:none;text-decoration-line:none;text-decoration-style:solid;text-decoration-color:#000000;letter-spacing:normal;word-spacing:normal;text-transform:none;direction:ltr;block-progression:tb;writing-mode:lr-tb;baseline-shift:baseline;text-anchor:start;white-space:normal;clip-rule:nonzero;display:inline;overflow:visible;visibility:visible;opacity:1;isolation:auto;mix-blend-mode:normal;color-interpolation:sRGB;color-interpolation-filters:linearRGB;solid-color:#000000;solid-opacity:1;fill:#cccccc;fill-opacity:1;fill-rule:nonzero;stroke:none;stroke-width:0.60716546;stroke-linecap:round;stroke-linejoin:round;stroke-miterlimit:4;stroke-dasharray:none;stroke-dashoffset:0;stroke-opacity:1;color-rendering:auto;image-rendering:auto;shape-rendering:auto;text-rendering:auto;enable-background:accumulate"
             d="M 123.13281 105.36523 L 66.636719 105.18555 A 3.0003 3.0003 0 0 0 64.591797 105.99609 L 61.763672 108.61914 C 61.855411 109.3193 61.982422 110.00986 61.982422 110.73438 C 61.982422 111.88636 61.769069 113.22432 61.392578 114.68555 C 61.107117 115.79347 60.653035 117.0182 60.199219 118.23828 L 67.794922 111.1875 L 127.50391 111.38477 C 126.16487 109.77321 124.64288 107.59582 123.13281 105.36523 z "
             id="path4297"
             transform="matrix(0.10119425,0,0,0.10119425,7.2390798,31.892929)" />
          <path
             style="fill:none;fill-rule:evenodd;stroke:#cccccc;stroke-width:0.50597125;stroke-linecap:round;stroke-linejoin:round;stroke-miterlimit:4;stroke-dasharray:0.50597121, 1.01194239999999990;stroke-dashoffset:0;stroke-opacity:1;fill-opacity:1"
             d="m 12.335348,46.220553 2.540024,-1.320295 2.488931,0.806118 3.468593,-2.053257"
             id="path4155-7"
             inkscape:connector-curvature="0"
             sodipodi:nodetypes="cccc" />
          <path
             style="color:#000000;clip-rule:nonzero;display:inline;overflow:visible;visibility:visible;opacity:1;isolation:auto;mix-blend-mode:normal;color-interpolation:sRGB;color-interpolation-filters:linearRGB;solid-color:#000000;solid-opacity:1;fill:#cccccc;fill-opacity:1;fill-rule:nonzero;stroke:none;stroke-width:0.60716552;stroke-linecap:round;stroke-linejoin:round;stroke-miterlimit:4;stroke-dasharray:none;stroke-dashoffset:0;stroke-opacity:1;color-rendering:auto;image-rendering:auto;shape-rendering:auto;text-rendering:auto;enable-background:accumulate"
             d="m 21.940541,40.547299 c 0,0.768615 -1.131762,2.535834 -1.363821,2.529146 -0.232159,-0.0066 -1.487182,-1.760531 -1.487181,-2.529146 -10e-7,-0.768613 0.638219,-1.391698 1.425501,-1.391698 0.787283,0 1.425501,0.623085 1.425501,1.391698 z"
             id="path4177-2"
             inkscape:connector-curvature="0"
             sodipodi:nodetypes="sssss" />
          <path
             style="color:#000000;font-style:normal;font-variant:normal;font-weight:normal;font-stretch:normal;font-size:medium;line-height:normal;font-family:sans-serif;text-indent:0;text-align:start;text-decoration:none;text-decoration-line:none;text-decoration-style:solid;text-decoration-color:#000000;letter-spacing:normal;word-spacing:normal;text-transform:none;direction:ltr;block-progression:tb;writing-mode:lr-tb;baseline-shift:baseline;text-anchor:start;white-space:normal;clip-rule:nonzero;display:inline;overflow:visible;visibility:visible;opacity:1;isolation:auto;mix-blend-mode:normal;color-interpolation:sRGB;color-interpolation-filters:linearRGB;solid-color:#000000;solid-opacity:1;fill:#cccccc;fill-opacity:1;fill-rule:nonzero;stroke:none;stroke-width:0.60716546;stroke-linecap:round;stroke-linejoin:round;stroke-miterlimit:4;stroke-dasharray:none;stroke-dashoffset:0;stroke-opacity:1;color-rendering:auto;image-rendering:auto;shape-rendering:auto;text-rendering:auto;enable-background:accumulate"
             d="m 13.953125,34.439453 a 0.30361309,0.30361309 0 0 0 -0.177734,0.08008 l -4.6738285,4.335938 a 0.30361309,0.30361309 0 0 0 0.2050781,0.527343 l 9.2031254,0.01367 a 0.30361309,0.30361309 0 0 0 0.207031,-0.08008 L 23.375,34.994141 a 0.30361309,0.30361309 0 0 0 -0.205078,-0.527344 l -9.1875,-0.02734 a 0.30361309,0.30361309 0 0 0 -0.0293,0 z m 0.146484,0.607422 8.298829,0.02539 -4.007813,3.716796 -8.3125,-0.01172 4.021484,-3.730469 z"
             id="path4186-7"
             inkscape:connector-curvature="0" />
          <path
             sodipodi:nodetypes="sssss"
             inkscape:connector-curvature="0"
             id="path4223"
             d="m 13.243321,43.162002 c 0,0.768614 -1.131762,2.535834 -1.363821,2.529146 -0.232159,-0.0066 -1.487182,-1.760532 -1.487181,-2.529146 -1e-6,-0.768614 0.638219,-1.391698 1.425501,-1.391698 0.787283,0 1.425501,0.623084 1.425501,1.391698 z"
             style="color:#000000;clip-rule:nonzero;display:inline;overflow:visible;visibility:visible;opacity:1;isolation:auto;mix-blend-mode:normal;color-interpolation:sRGB;color-interpolation-filters:linearRGB;solid-color:#000000;solid-opacity:1;fill:#cccccc;fill-opacity:1;fill-rule:nonzero;stroke:none;stroke-width:0.60716552;stroke-linecap:round;stroke-linejoin:round;stroke-miterlimit:4;stroke-dasharray:none;stroke-dashoffset:0;stroke-opacity:1;color-rendering:auto;image-rendering:auto;shape-rendering:auto;text-rendering:auto;enable-background:accumulate" />
          <path
             style="color:#000000;font-style:normal;font-variant:normal;font-weight:normal;font-stretch:normal;font-size:medium;line-height:normal;font-family:sans-serif;text-indent:0;text-align:start;text-decoration:none;text-decoration-line:none;text-decoration-style:solid;text-decoration-color:#000000;letter-spacing:normal;word-spacing:normal;text-transform:none;direction:ltr;block-progression:tb;writing-mode:lr-tb;baseline-shift:baseline;text-anchor:start;white-space:normal;clip-rule:nonzero;display:inline;overflow:visible;visibility:visible;opacity:1;isolation:auto;mix-blend-mode:normal;color-interpolation:sRGB;color-interpolation-filters:linearRGB;solid-color:#000000;solid-opacity:1;fill:#cccccc;fill-opacity:1;fill-rule:nonzero;stroke:none;stroke-width:0.60716546;stroke-linecap:round;stroke-linejoin:round;stroke-miterlimit:4;stroke-dasharray:none;stroke-dashoffset:0;stroke-opacity:1;color-rendering:auto;image-rendering:auto;shape-rendering:auto;text-rendering:auto;enable-background:accumulate"
             d="m 9.3027344,38.75 a 0.30361309,0.30361309 0 0 0 -0.2988282,0.308594 l 0,8.041015 a 0.30371095,0.30371095 0 0 0 0.6074219,0 l 0,-8.041015 A 0.30361309,0.30361309 0 0 0 9.3027344,38.75 Z"
             id="path4231"
             inkscape:connector-curvature="0" />
          <path
             style="color:#000000;font-style:normal;font-variant:normal;font-weight:normal;font-stretch:normal;font-size:medium;line-height:normal;font-family:sans-serif;text-indent:0;text-align:start;text-decoration:none;text-decoration-line:none;text-decoration-style:solid;text-decoration-color:#000000;letter-spacing:normal;word-spacing:normal;text-transform:none;direction:ltr;block-progression:tb;writing-mode:lr-tb;baseline-shift:baseline;text-anchor:start;white-space:normal;clip-rule:nonzero;display:inline;overflow:visible;visibility:visible;opacity:1;isolation:auto;mix-blend-mode:normal;color-interpolation:sRGB;color-interpolation-filters:linearRGB;solid-color:#000000;solid-opacity:1;fill:#cccccc;fill-opacity:1;fill-rule:nonzero;stroke:none;stroke-width:0.60716546;stroke-linecap:round;stroke-linejoin:round;stroke-miterlimit:4;stroke-dasharray:none;stroke-dashoffset:0;stroke-opacity:1;color-rendering:auto;image-rendering:auto;shape-rendering:auto;text-rendering:auto;enable-background:accumulate"
             d="m 18.425781,38.888672 a 0.30361309,0.30361309 0 0 0 -0.298828,0.30664 l 0,7.910157 a 0.303711,0.303711 0 0 0 0.607422,0 l 0,-7.910157 a 0.30361309,0.30361309 0 0 0 -0.308594,-0.30664 z"
             id="path4233"
             inkscape:connector-curvature="0" />
          <path
             style="color:#000000;font-style:normal;font-variant:normal;font-weight:normal;font-stretch:normal;font-size:medium;line-height:normal;font-family:sans-serif;text-indent:0;text-align:start;text-decoration:none;text-decoration-line:none;text-decoration-style:solid;text-decoration-color:#000000;letter-spacing:normal;word-spacing:normal;text-transform:none;direction:ltr;block-progression:tb;writing-mode:lr-tb;baseline-shift:baseline;text-anchor:start;white-space:normal;clip-rule:nonzero;display:inline;overflow:visible;visibility:visible;opacity:1;isolation:auto;mix-blend-mode:normal;color-interpolation:sRGB;color-interpolation-filters:linearRGB;solid-color:#000000;solid-opacity:1;fill:#cccccc;fill-opacity:1;fill-rule:nonzero;stroke:none;stroke-width:0.60716546;stroke-linecap:round;stroke-linejoin:round;stroke-miterlimit:4;stroke-dasharray:none;stroke-dashoffset:0;stroke-opacity:1;color-rendering:auto;image-rendering:auto;shape-rendering:auto;text-rendering:auto;enable-background:accumulate"
             d="m 23.164062,34.505859 a 0.30361309,0.30361309 0 0 0 -0.298828,0.308594 l 0,8.041016 a 0.303711,0.303711 0 0 0 0.607422,0 l 0,-8.041016 a 0.30361309,0.30361309 0 0 0 -0.308594,-0.308594 z"
             id="path4235"
             inkscape:connector-curvature="0" />
          <path
             style="color:#000000;font-style:normal;font-variant:normal;font-weight:normal;font-stretch:normal;font-size:medium;line-height:normal;font-family:sans-serif;text-indent:0;text-align:start;text-decoration:none;text-decoration-line:none;text-decoration-style:solid;text-decoration-color:#000000;letter-spacing:normal;word-spacing:normal;text-transform:none;direction:ltr;block-progression:tb;writing-mode:lr-tb;baseline-shift:baseline;text-anchor:start;white-space:normal;clip-rule:nonzero;display:inline;overflow:visible;visibility:visible;opacity:1;isolation:auto;mix-blend-mode:normal;color-interpolation:sRGB;color-interpolation-filters:linearRGB;solid-color:#000000;solid-opacity:1;fill:#cccccc;fill-opacity:1;fill-rule:nonzero;stroke:none;stroke-width:0.60716546;stroke-linecap:round;stroke-linejoin:round;stroke-miterlimit:4;stroke-dasharray:none;stroke-dashoffset:0;stroke-opacity:1;color-rendering:auto;image-rendering:auto;shape-rendering:auto;text-rendering:auto;enable-background:accumulate"
             d="m 14.041016,34.423828 a 0.30361309,0.30361309 0 0 0 -0.298828,0.308594 l 0,8.042969 a 0.3037105,0.3037105 0 0 0 0.607421,0 l 0,-8.042969 a 0.30361309,0.30361309 0 0 0 -0.308593,-0.308594 z"
             id="path4251"
             inkscape:connector-curvature="0" />
          <path
             sodipodi:nodetypes="ccccc"
             inkscape:connector-curvature="0"
             id="path4253"
             d="m 45.937925,42.870065 -4.659242,4.322421 -9.20292,-0.01436 4.674655,-4.33678 z"
             style="color:#000000;clip-rule:nonzero;display:inline;overflow:visible;visibility:visible;opacity:1;isolation:auto;mix-blend-mode:normal;color-interpolation:sRGB;color-interpolation-filters:linearRGB;solid-color:#000000;solid-opacity:1;fill:none;fill-opacity:1;fill-rule:nonzero;stroke:#3daee9;stroke-width:0.60716546;stroke-linecap:round;stroke-linejoin:round;stroke-miterlimit:4;stroke-dasharray:none;stroke-dashoffset:0;stroke-opacity:1;color-rendering:auto;image-rendering:auto;shape-rendering:auto;text-rendering:auto;enable-background:accumulate" />
          <path
             style="color:#000000;clip-rule:nonzero;display:inline;overflow:visible;visibility:visible;opacity:1;isolation:auto;mix-blend-mode:normal;color-interpolation:sRGB;color-interpolation-filters:linearRGB;solid-color:#000000;solid-opacity:1;fill:#f9f9f9;fill-opacity:1;fill-rule:nonzero;stroke:none;stroke-width:0.60716552;stroke-linecap:round;stroke-linejoin:round;stroke-miterlimit:4;stroke-dasharray:none;stroke-dashoffset:0;stroke-opacity:1;color-rendering:auto;image-rendering:auto;shape-rendering:auto;text-rendering:auto;enable-background:accumulate"
             d="m 44.999011,40.492884 c 0,0.93259 -1.373213,3.076829 -1.654779,3.068714 -0.281688,-0.0081 -1.804459,-2.136124 -1.804457,-3.068714 -2e-6,-0.932592 0.774376,-1.688607 1.729618,-1.688607 0.955242,0 1.729618,0.756015 1.729618,1.688607 z"
             id="path4255"
             inkscape:connector-curvature="0"
             sodipodi:nodetypes="sssss" />
          <path
             sodipodi:nodetypes="sssss"
             inkscape:connector-curvature="0"
             id="path4257"
             d="m 36.273088,43.107587 c 0,0.932592 -1.373213,3.07683 -1.654779,3.068715 -0.281689,-0.0081 -1.80446,-2.136123 -1.804458,-3.068715 -2e-6,-0.932591 0.774377,-1.688606 1.729618,-1.688606 0.955242,0 1.729619,0.756015 1.729619,1.688606 z"
             style="color:#000000;clip-rule:nonzero;display:inline;overflow:visible;visibility:visible;opacity:1;isolation:auto;mix-blend-mode:normal;color-interpolation:sRGB;color-interpolation-filters:linearRGB;solid-color:#000000;solid-opacity:1;fill:#f9f9f9;fill-opacity:1;fill-rule:nonzero;stroke:none;stroke-width:0.60716552;stroke-linecap:round;stroke-linejoin:round;stroke-miterlimit:4;stroke-dasharray:none;stroke-dashoffset:0;stroke-opacity:1;color-rendering:auto;image-rendering:auto;shape-rendering:auto;text-rendering:auto;enable-background:accumulate" />
          <path
             sodipodi:nodetypes="cccc"
             inkscape:connector-curvature="0"
             id="path4259"
             d="m 35.104053,46.220553 2.540024,-1.320295 2.488931,0.806118 3.468593,-2.053257"
             style="fill:none;fill-rule:evenodd;stroke:#3daee9;stroke-width:0.50597125;stroke-linecap:round;stroke-linejoin:round;stroke-miterlimit:4;stroke-dasharray:0.50597121, 1.0119424;stroke-dashoffset:0;stroke-opacity:1" />
          <path
             sodipodi:nodetypes="sssss"
             inkscape:connector-curvature="0"
             id="path4261"
             d="m 44.709246,40.547299 c 0,0.768615 -1.131762,2.535834 -1.363821,2.529146 -0.232159,-0.0066 -1.487182,-1.760531 -1.487181,-2.529146 -10e-7,-0.768613 0.638219,-1.391698 1.425501,-1.391698 0.787283,0 1.425501,0.623085 1.425501,1.391698 z"
             style="color:#000000;clip-rule:nonzero;display:inline;overflow:visible;visibility:visible;opacity:1;isolation:auto;mix-blend-mode:normal;color-interpolation:sRGB;color-interpolation-filters:linearRGB;solid-color:#000000;solid-opacity:1;fill:#3daee9;fill-opacity:1;fill-rule:nonzero;stroke:none;stroke-width:0.60716552;stroke-linecap:round;stroke-linejoin:round;stroke-miterlimit:4;stroke-dasharray:none;stroke-dashoffset:0;stroke-opacity:1;color-rendering:auto;image-rendering:auto;shape-rendering:auto;text-rendering:auto;enable-background:accumulate" />
          <path
             style="color:#000000;clip-rule:nonzero;display:inline;overflow:visible;visibility:visible;opacity:1;isolation:auto;mix-blend-mode:normal;color-interpolation:sRGB;color-interpolation-filters:linearRGB;solid-color:#000000;solid-opacity:1;fill:none;fill-opacity:1;fill-rule:nonzero;stroke:#3daee9;stroke-width:0.60716546;stroke-linecap:round;stroke-linejoin:round;stroke-miterlimit:4;stroke-dasharray:none;stroke-dashoffset:0;stroke-opacity:1;color-rendering:auto;image-rendering:auto;shape-rendering:auto;text-rendering:auto;enable-background:accumulate"
             d="m 45.937925,34.770911 -4.659242,4.322421 -9.20292,-0.01436 4.674655,-4.33678 z"
             id="path4263"
             inkscape:connector-curvature="0"
             sodipodi:nodetypes="ccccc" />
          <path
             style="color:#000000;clip-rule:nonzero;display:inline;overflow:visible;visibility:visible;opacity:1;isolation:auto;mix-blend-mode:normal;color-interpolation:sRGB;color-interpolation-filters:linearRGB;solid-color:#000000;solid-opacity:1;fill:#3daee9;fill-opacity:1;fill-rule:nonzero;stroke:none;stroke-width:0.60716552;stroke-linecap:round;stroke-linejoin:round;stroke-miterlimit:4;stroke-dasharray:none;stroke-dashoffset:0;stroke-opacity:1;color-rendering:auto;image-rendering:auto;shape-rendering:auto;text-rendering:auto;enable-background:accumulate"
             d="m 36.012026,43.162002 c 0,0.768614 -1.131762,2.535834 -1.363821,2.529146 -0.232159,-0.0066 -1.487182,-1.760532 -1.487181,-2.529146 -10e-7,-0.768614 0.638219,-1.391698 1.425501,-1.391698 0.787283,0 1.425501,0.623084 1.425501,1.391698 z"
             id="path4265"
             inkscape:connector-curvature="0"
             sodipodi:nodetypes="sssss" />
          <path
             inkscape:connector-curvature="0"
             id="path4267"
             d="m 32.07585,39.05835 0,8.042123"
             style="color:#000000;clip-rule:nonzero;display:inline;overflow:visible;visibility:visible;opacity:1;isolation:auto;mix-blend-mode:normal;color-interpolation:sRGB;color-interpolation-filters:linearRGB;solid-color:#000000;solid-opacity:1;fill:none;fill-opacity:1;fill-rule:nonzero;stroke:#3daee9;stroke-width:0.60716546;stroke-linecap:round;stroke-linejoin:round;stroke-miterlimit:4;stroke-dasharray:none;stroke-dashoffset:0;stroke-opacity:1;color-rendering:auto;image-rendering:auto;shape-rendering:auto;text-rendering:auto;enable-background:accumulate" />
          <path
             style="color:#000000;clip-rule:nonzero;display:inline;overflow:visible;visibility:visible;opacity:1;isolation:auto;mix-blend-mode:normal;color-interpolation:sRGB;color-interpolation-filters:linearRGB;solid-color:#000000;solid-opacity:1;fill:none;fill-opacity:1;fill-rule:nonzero;stroke:#3daee9;stroke-width:0.60716546;stroke-linecap:round;stroke-linejoin:round;stroke-miterlimit:4;stroke-dasharray:none;stroke-dashoffset:0;stroke-opacity:1;color-rendering:auto;image-rendering:auto;shape-rendering:auto;text-rendering:auto;enable-background:accumulate"
             d="m 41.198874,39.196263 0,7.909899"
             id="path4269"
             inkscape:connector-curvature="0" />
          <path
             inkscape:connector-curvature="0"
             id="path4271"
             d="m 45.937839,34.813896 0,8.042123"
             style="color:#000000;clip-rule:nonzero;display:inline;overflow:visible;visibility:visible;opacity:1;isolation:auto;mix-blend-mode:normal;color-interpolation:sRGB;color-interpolation-filters:linearRGB;solid-color:#000000;solid-opacity:1;fill:none;fill-opacity:1;fill-rule:nonzero;stroke:#3daee9;stroke-width:0.60716546;stroke-linecap:round;stroke-linejoin:round;stroke-miterlimit:4;stroke-dasharray:none;stroke-dashoffset:0;stroke-opacity:1;color-rendering:auto;image-rendering:auto;shape-rendering:auto;text-rendering:auto;enable-background:accumulate" />
          <path
             inkscape:connector-curvature="0"
             id="path4273"
             d="m 36.814812,34.732662 0,8.042123"
             style="color:#000000;clip-rule:nonzero;display:inline;overflow:visible;visibility:visible;opacity:1;isolation:auto;mix-blend-mode:normal;color-interpolation:sRGB;color-interpolation-filters:linearRGB;solid-color:#000000;solid-opacity:1;fill:none;fill-opacity:1;fill-rule:nonzero;stroke:#3daee9;stroke-width:0.60716546;stroke-linecap:round;stroke-linejoin:round;stroke-miterlimit:4;stroke-dasharray:none;stroke-dashoffset:0;stroke-opacity:1;color-rendering:auto;image-rendering:auto;shape-rendering:auto;text-rendering:auto;enable-background:accumulate" />
        </g>
      </g>
      <g
         id="g4212"
         transform="matrix(0.31161822,-0.31161822,0.31161822,0.31161822,1209.2224,-2903.0016)"
         style="fill:#ff6600">
        <g
           id="g4218" />
      </g>
    </g>
  </g>
</svg>
