<?xml version="1.0" encoding="UTF-8" standalone="no"?>
<!-- Created with Inkscape (http://www.inkscape.org/) -->

<svg
   xmlns:dc="http://purl.org/dc/elements/1.1/"
   xmlns:cc="http://creativecommons.org/ns#"
   xmlns:rdf="http://www.w3.org/1999/02/22-rdf-syntax-ns#"
   xmlns:svg="http://www.w3.org/2000/svg"
   xmlns="http://www.w3.org/2000/svg"
   xmlns:sodipodi="http://sodipodi.sourceforge.net/DTD/sodipodi-0.dtd"
   xmlns:inkscape="http://www.inkscape.org/namespaces/inkscape"
   width="50mm"
   height="50mm"
   viewBox="0 0 177.16535 177.16534"
   id="svg5414"
   version="1.1"
   inkscape:version="0.91 r13725"
   sodipodi:docname="icon_regions_off.svg">
  <defs
     id="defs5416" />
  <sodipodi:namedview
     id="base"
     pagecolor="#ffffff"
     bordercolor="#666666"
     borderopacity="1.0"
     inkscape:pageopacity="0.0"
     inkscape:pageshadow="2"
     inkscape:zoom="1.4"
     inkscape:cx="121.92489"
     inkscape:cy="4.214935"
     inkscape:document-units="px"
     inkscape:current-layer="g4169"
     showgrid="false"
     fit-margin-top="0"
     fit-margin-left="0"
     fit-margin-right="0"
     fit-margin-bottom="0"
     inkscape:window-width="1680"
     inkscape:window-height="987"
     inkscape:window-x="-8"
     inkscape:window-y="24"
     inkscape:window-maximized="1" />
  <metadata
     id="metadata5419">
    <rdf:RDF>
      <cc:Work
         rdf:about="">
        <dc:format>image/svg+xml</dc:format>
        <dc:type
           rdf:resource="http://purl.org/dc/dcmitype/StillImage" />
        <dc:title />
      </cc:Work>
    </rdf:RDF>
  </metadata>
  <g
     inkscape:label="Laag 1"
     inkscape:groupmode="layer"
     id="layer1"
     transform="translate(-7.1785493,127.50126)">
    <g
       id="g14926"
       style="fill:#ff6600"
       transform="matrix(0.70222302,0,0,0.70222302,-684.67926,1999.7112)">
      <g
         transform="matrix(1.424049,0,0,1.424049,521.44526,-2847.9631)"
         id="layer1-4"
         inkscape:label="Laag 1">
        <g
           transform="matrix(9.8819836,0,0,9.8819836,254.15048,-442.47261)"
           id="layer1-0"
           inkscape:label="Laag 1">
          <g
             id="g4169">
            <g
               id="g4170"
               transform="matrix(0.10119425,0,0,0.10119425,-23.264536,40.424174)" />
            <text
               transform="scale(1,-1)"
               sodipodi:linespacing="125%"
               id="text8616"
               y="-43.150719"
               x="1.4597347"
               style="font-style:normal;font-weight:normal;font-size:0.68277884px;line-height:125%;font-family:sans-serif;letter-spacing:0px;word-spacing:0px;fill:#000000;fill-opacity:1;stroke:none;stroke-width:1px;stroke-linecap:butt;stroke-linejoin:miter;stroke-opacity:1"
               xml:space="preserve"><tspan
                 style="font-weight:bold"
                 y="-43.150719"
                 x="1.4597347"
                 id="tspan8618"
                 sodipodi:role="line" /></text>
            <g
               style="fill:#ff6600;stroke:#cccccc;stroke-opacity:1"
               transform="matrix(0.10119425,0,0,0.10119425,6.5126508,44.795323)"
               id="layer1-44"
               inkscape:label="Laag 1">
              <g
                 transform="translate(-294.25767,-43.195635)"
                 id="g4170-1"
                 style="fill:#ff6600;stroke:#cccccc;stroke-opacity:1" />
              <text
                 xml:space="preserve"
                 style="font-style:normal;font-weight:normal;font-size:6.74720907px;line-height:125%;font-family:sans-serif;letter-spacing:0px;word-spacing:0px;fill:#000000;fill-opacity:1;stroke:#cccccc;stroke-width:1px;stroke-linecap:butt;stroke-linejoin:miter;stroke-opacity:1"
                 x="-49.932835"
                 y="16.251966"
                 id="text8616-3"
                 sodipodi:linespacing="125%"
                 transform="scale(1,-1)"><tspan
                   sodipodi:role="line"
                   id="tspan8618-8"
                   x="-49.932835"
                   y="16.251966"
                   style="font-weight:bold;stroke:#cccccc;stroke-opacity:1" /></text>
              <path
                 style="color:#000000;clip-rule:nonzero;display:inline;overflow:visible;visibility:visible;opacity:1;isolation:auto;mix-blend-mode:normal;color-interpolation:sRGB;color-interpolation-filters:linearRGB;solid-color:#000000;solid-opacity:1;fill:none;fill-opacity:1;fill-rule:nonzero;stroke:#cccccc;stroke-width:9.99999905;stroke-linecap:round;stroke-linejoin:round;stroke-miterlimit:4;stroke-dasharray:39.99999567, 19.99999778999999800;stroke-dashoffset:0;stroke-opacity:1;color-rendering:auto;image-rendering:auto;shape-rendering:auto;text-rendering:auto;enable-background:accumulate"
                 d="m 168.00181,-14.556007 c 1.86172,34.163026 -32.08137,38.174745 -112.047597,41.052814 -29.318878,1.055208 -27.108279,-50.030428 -27.108279,-84.299299 0,-34.268881 61.378276,-43.559858 90.722406,-43.559858 29.34411,0 46.56806,52.575636 48.43347,86.806343 z"
                 id="path4164-2"
                 inkscape:connector-curvature="0"
                 sodipodi:nodetypes="sssss" />
              <g
                 id="g4212-5"
                 transform="matrix(0.21882549,-0.21882549,0.21882549,0.21882549,164.46455,-38.843351)"
                 style="fill:#ff6600;stroke:#cccccc;stroke-opacity:1">
                <g
                   id="g4218-1"
                   style="stroke:#cccccc;stroke-opacity:1" />
              </g>
              <path
                 style="fill:#cccccc;fill-opacity:1;fill-rule:evenodd;stroke:#cccccc;stroke-width:4.99999952;stroke-linecap:round;stroke-linejoin:round;stroke-miterlimit:4;stroke-dasharray:none;stroke-opacity:1"
                 d="M 47.639235,-23.260325 93.124512,-84.14143"
                 id="path4203"
                 inkscape:connector-curvature="0" />
              <path
                 inkscape:connector-curvature="0"
                 id="path4205"
                 d="M 57.864032,6.8538547 122.9132,-80.402287"
                 style="fill:#cccccc;fill-opacity:1;fill-rule:evenodd;stroke:#cccccc;stroke-width:4.99999952;stroke-linecap:round;stroke-linejoin:round;stroke-miterlimit:4;stroke-dasharray:none;stroke-opacity:1" />
              <path
                 style="fill:#cccccc;fill-opacity:1;fill-rule:evenodd;stroke:#cccccc;stroke-width:4.99999952;stroke-linecap:round;stroke-linejoin:round;stroke-miterlimit:4;stroke-dasharray:none;stroke-opacity:1"
                 d="M 87.907074,5.3518513 138.77426,-63.074642"
                 id="path4207"
                 inkscape:connector-curvature="0" />
              <path
                 inkscape:connector-curvature="0"
                 id="path4209"
                 d="M 122.27684,1.9501893 148.66709,-33.702457"
                 style="fill:#cccccc;fill-opacity:1;fill-rule:evenodd;stroke:#cccccc;stroke-width:4.99999952;stroke-linecap:round;stroke-linejoin:round;stroke-miterlimit:4;stroke-dasharray:none;stroke-opacity:1" />
              <path
                 style="fill:#cccccc;fill-opacity:1;fill-rule:evenodd;stroke:#cccccc;stroke-width:4.99999952;stroke-linecap:round;stroke-linejoin:round;stroke-miterlimit:4;stroke-dasharray:none;stroke-opacity:1"
                 d="M 45.864925,-55.1442 60.37108,-74.602182"
                 id="path4211"
                 inkscape:connector-curvature="0" />
            </g>
          </g>
        </g>
      </g>
      <g
         id="g4212"
         transform="matrix(0.31161822,-0.31161822,0.31161822,0.31161822,1209.2224,-2903.0016)"
         style="fill:#ff6600">
        <g
           id="g4218" />
      </g>
    </g>
  </g>
</svg>
