<?xml version="1.0" encoding="UTF-8" standalone="no"?>
<!-- Created with Inkscape (http://www.inkscape.org/) -->

<svg
   xmlns:dc="http://purl.org/dc/elements/1.1/"
   xmlns:cc="http://creativecommons.org/ns#"
   xmlns:rdf="http://www.w3.org/1999/02/22-rdf-syntax-ns#"
   xmlns:svg="http://www.w3.org/2000/svg"
   xmlns="http://www.w3.org/2000/svg"
   xmlns:sodipodi="http://sodipodi.sourceforge.net/DTD/sodipodi-0.dtd"
   xmlns:inkscape="http://www.inkscape.org/namespaces/inkscape"
   width="50mm"
   height="50mm"
   viewBox="0 0 177.16535 177.16534"
   id="svg5414"
   version="1.1"
   inkscape:version="0.91 r13725"
   sodipodi:docname="icon_cog.svg">
  <defs
     id="defs5416" />
  <sodipodi:namedview
     id="base"
     pagecolor="#ffffff"
     bordercolor="#666666"
     borderopacity="1.0"
     inkscape:pageopacity="0.0"
     inkscape:pageshadow="2"
     inkscape:zoom="1.979899"
     inkscape:cx="10.767861"
     inkscape:cy="77.232257"
     inkscape:document-units="px"
     inkscape:current-layer="layer1-9"
     showgrid="false"
     fit-margin-top="0"
     fit-margin-left="0"
     fit-margin-right="0"
     fit-margin-bottom="0"
     inkscape:window-width="1680"
     inkscape:window-height="987"
     inkscape:window-x="-8"
     inkscape:window-y="24"
     inkscape:window-maximized="1" />
  <metadata
     id="metadata5419">
    <rdf:RDF>
      <cc:Work
         rdf:about="">
        <dc:format>image/svg+xml</dc:format>
        <dc:type
           rdf:resource="http://purl.org/dc/dcmitype/StillImage" />
        <dc:title />
      </cc:Work>
    </rdf:RDF>
  </metadata>
  <g
     inkscape:label="Laag 1"
     inkscape:groupmode="layer"
     id="layer1"
     transform="translate(-7.1785493,127.50126)">
    <g
       id="g14926"
       style="fill:#ff6600"
       transform="matrix(0.70222302,0,0,0.70222302,-684.67926,1999.7112)">
      <g
         transform="matrix(1.424049,0,0,1.424049,521.44526,-2847.9631)"
         id="layer1-4"
         inkscape:label="Laag 1">
        <g
           transform="matrix(9.8819836,0,0,9.8819836,254.15048,-442.47261)"
           id="layer1-0"
           inkscape:label="Laag 1">
          <g
             id="g4169">
            <g
               transform="matrix(0.10119426,0,0,0.10119426,6.6974293,44.763879)"
               id="layer1-9"
               inkscape:label="Laag 1"
               style="fill:#3daee9;fill-opacity:1">
              <g
                 transform="matrix(0.70222302,0,0,0.70222302,-684.67926,1999.7112)"
                 style="fill:#3daee9;fill-opacity:1"
                 id="g14926-2">
                <g
                   inkscape:label="Laag 1"
                   id="layer1-4-9"
                   transform="matrix(1.424049,0,0,1.424049,727.5942,-2847.6864)"
                   style="fill:#3daee9;fill-opacity:1">
                  <g
                     style="fill:#3daee9;fill-opacity:1"
                     transform="matrix(4.6830354,0,0,4.6830354,194.57852,-113.84742)"
                     id="g4150">
                    <g
                       style="fill:#3daee9;fill-opacity:1"
                       id="Layer_1" />
                    <g
                       style="fill:#3daee9;fill-opacity:1"
                       id="cog">
                      <path
                         inkscape:connector-curvature="0"
                         d="m 32,17.969 0,-4 -4.781,-1.992 C 27.086,11.602 26.946,11.239 26.774,10.883 L 28.704,6.078 25.875,3.25 21.113,5.211 C 20.75,5.035 20.379,4.887 19.996,4.75 L 17.969,0 l -4,0 -1.977,4.734 c -0.398,0.141 -0.781,0.289 -1.16,0.469 L 6.078,3.293 3.25,6.121 5.188,10.832 C 5,11.219 4.848,11.613 4.703,12.02 L 0,14.031 l 0,4 4.707,1.961 c 0.145,0.406 0.301,0.801 0.488,1.188 l -1.902,4.742 2.828,2.828 4.723,-1.945 c 0.379,0.18 0.766,0.324 1.164,0.461 l 2.023,4.734 4,0 1.98,-4.758 c 0.379,-0.141 0.754,-0.289 1.113,-0.461 l 4.797,1.922 2.828,-2.828 -1.969,-4.773 c 0.168,-0.359 0.305,-0.723 0.438,-1.094 z M 15.969,22.427073 C 12.657,22.427073 9.5419266,19.312 9.5419266,16 c 0,-3.312 3.1150734,-6.4270734 6.4270734,-6.4270734 3.312,0 6.427073,3.1150734 6.427073,6.4270734 0,3.312 -3.115073,6.427073 -6.427073,6.427073 z"
                         style="fill:#3daee9;fill-opacity:1"
                         id="path4142"
                         sodipodi:nodetypes="cccccccccccccccccccccccccccccccccsssss" />
                    </g>
                  </g>
                </g>
                <g
                   style="fill:#3daee9;fill-opacity:1"
                   transform="matrix(0.31161822,-0.31161822,0.31161822,0.31161822,1209.2224,-2903.0016)"
                   id="g4212-4">
                  <g
                     id="g4218-0"
                     style="fill:#3daee9;fill-opacity:1" />
                </g>
              </g>
            </g>
          </g>
        </g>
      </g>
      <g
         id="g4212"
         transform="matrix(0.31161822,-0.31161822,0.31161822,0.31161822,1209.2224,-2903.0016)"
         style="fill:#ff6600">
        <g
           id="g4218" />
      </g>
    </g>
  </g>
</svg>
