<?xml version="1.0" encoding="UTF-8" standalone="no"?>
<!-- Created with Inkscape (http://www.inkscape.org/) -->

<svg
   xmlns:dc="http://purl.org/dc/elements/1.1/"
   xmlns:cc="http://creativecommons.org/ns#"
   xmlns:rdf="http://www.w3.org/1999/02/22-rdf-syntax-ns#"
   xmlns:svg="http://www.w3.org/2000/svg"
   xmlns="http://www.w3.org/2000/svg"
   xmlns:sodipodi="http://sodipodi.sourceforge.net/DTD/sodipodi-0.dtd"
   xmlns:inkscape="http://www.inkscape.org/namespaces/inkscape"
   width="5mm"
   height="5mm"
   viewBox="0 0 17.716535 17.716534"
   id="svg5414"
   version="1.1"
   inkscape:version="0.91 r13725"
   sodipodi:docname="icon_done.svg">
  <defs
     id="defs5416" />
  <sodipodi:namedview
     id="base"
     pagecolor="#ffffff"
     bordercolor="#666666"
     borderopacity="1.0"
     inkscape:pageopacity="0.0"
     inkscape:pageshadow="2"
     inkscape:zoom="11.2"
     inkscape:cx="15.639245"
     inkscape:cy="13.883559"
     inkscape:document-units="px"
     inkscape:current-layer="layer1"
     showgrid="false"
     fit-margin-top="0"
     fit-margin-left="0"
     fit-margin-right="0"
     fit-margin-bottom="0"
     inkscape:window-width="1536"
     inkscape:window-height="801"
     inkscape:window-x="-8"
     inkscape:window-y="1042"
     inkscape:window-maximized="1" />
  <metadata
     id="metadata5419">
    <rdf:RDF>
      <cc:Work
         rdf:about="">
        <dc:format>image/svg+xml</dc:format>
        <dc:type
           rdf:resource="http://purl.org/dc/dcmitype/StillImage" />
        <dc:title />
      </cc:Work>
    </rdf:RDF>
  </metadata>
  <g
     inkscape:label="Laag 1"
     inkscape:groupmode="layer"
     id="layer1"
     transform="translate(-7.1785493,-31.94753)">
    <g
       id="g4620-4-5"
       transform="matrix(0.10952384,0,0,0.10952384,-76.730923,12.801364)">
      <circle
         style="fill:#008000;fill-opacity:1;stroke:none;stroke-opacity:1"
         id="path4618-1-2"
         cx="848.52814"
         cy="256.15997"
         r="74.246216" />
      <path
         style="fill:#ffffff"
         d="m 833.2565,305.41059 c -1.899,-0.90268 -19.07151,-17.49639 -31.10895,-30.06043 -4.78536,-4.99471 -5.09306,-5.44104 -5.09306,-7.38765 0,-1.93596 0.3026,-2.38458 4.61607,-6.84336 4.99998,-5.16843 6.45015,-6.16904 8.94069,-6.16904 1.44702,0 2.81732,1.19078 12.68624,11.02417 l 11.06401,11.02416 1.44485,-1.99661 c 0.79467,-1.09814 3.35483,-4.83515 5.68924,-8.30447 2.3344,-3.46931 6.37904,-9.43237 8.98808,-13.25122 2.60904,-3.81885 7.32779,-10.78393 10.4861,-15.47794 9.15976,-13.61362 17.66394,-25.85878 19.07755,-27.46976 1.08078,-1.23167 1.68701,-1.48744 3.52558,-1.48744 1.95745,0 2.87548,0.45603 7.75308,3.85134 3.04299,2.11824 5.77169,4.37583 6.06376,5.01687 1.4789,3.24583 1.90459,2.51908 -22.59102,38.56892 -3.45235,5.08076 -8.18375,12.04653 -10.51424,15.47948 -19.3088,28.44308 -21.78919,31.92094 -23.68427,33.20868 -2.20866,1.50083 -4.57728,1.5893 -7.34371,0.2743 z"
         id="path4616-4-9"
         inkscape:connector-curvature="0" />
    </g>
  </g>
</svg>
