<?xml version="1.0" encoding="utf-8"?>
<!-- Generator: Adobe Illustrator 19.1.0, SVG Export Plug-In . SVG Version: 6.00 Build 0)  -->
<svg version="1.1" id="Layer_1" xmlns="http://www.w3.org/2000/svg" xmlns:xlink="http://www.w3.org/1999/xlink" x="0px" y="0px"
	 viewBox="-660 688.9 96.8 40.4" style="enable-background:new -660 688.9 96.8 40.4;" xml:space="preserve">
<style type="text/css">
	.st0{fill:#FFFFFF;}
</style>
<g id="page1" transform="matrix(1.13 0 0 1.13 -63.986 -61.022)">
	<g>
		<path id="g4-49" class="st0" d="M-524.2,676.7c0-0.3,0-0.3-0.2-0.3c-0.3,0.3-0.9,0.8-2.1,0.8v0.3c0.3,0,0.9,0,1.5-0.3v6.2
			c0,0.4,0,0.6-1.1,0.6h-0.4v0.3c0.3,0,1.5,0,1.9,0c0.4,0,1.5,0,1.9,0v-0.3h-0.4c-1.1,0-1.1-0.1-1.1-0.6V676.7z"/>
	</g>
	<g>
		<path id="g2-61" class="st0" d="M-516.7,675.9c0,0,0.1-0.2,0.1-0.2c0-0.1-0.1-0.2-0.2-0.2c-0.1,0-0.2,0-0.3,0.3l-4,11.2
			c0,0-0.1,0.2-0.1,0.2c0,0.1,0.1,0.2,0.2,0.2c0.1,0,0.2,0,0.3-0.3L-516.7,675.9z"/>
	</g>
	<g>
		<path id="g4-101" class="st0" d="M-509.4,681.6c0.3,0,0.3,0,0.3-0.2c0-1.2-0.6-2.3-2.1-2.3c-1.4,0-2.4,1.2-2.4,2.7
			c0,1.6,1.2,2.7,2.5,2.7c1.4,0,2-1.3,2-1.5c0-0.1-0.1-0.1-0.1-0.1c-0.1,0-0.1,0.1-0.1,0.1c-0.3,1-1.1,1.3-1.6,1.3
			c-0.5,0-1.7-0.3-1.7-2.4v-0.2H-509.4z M-512.7,681.4c0.1-1.9,1.1-2.1,1.5-2.1c1.3,0,1.4,1.7,1.4,2.1H-512.7z"/>
	</g>
	<g>
		<path id="g4-120" class="st0" d="M-505.5,681.6c0.3-0.5,0.8-1.1,1.1-1.4c0.5-0.5,1.1-0.6,1.4-0.6v-0.3c-0.5,0-0.5,0-1,0
			c-0.5,0-0.5,0-1.1,0v0.3c0.2,0,0.3,0.1,0.3,0.4c0,0.2-0.1,0.3-0.2,0.4l-0.8,1l-0.9-1.2c0,0-0.1-0.2-0.1-0.2c0-0.1,0.1-0.3,0.4-0.3
			v-0.3c-0.3,0-0.9,0-1.2,0c-0.4,0-0.4,0-1.1,0v0.3c0.6,0,0.8,0,1.1,0.3l1.4,1.8c0,0,0.1,0.1,0.1,0.1c0,0-0.9,1.2-1.1,1.4
			c-0.5,0.6-1.1,0.8-1.6,0.8v0.3c0.5,0,0.5,0,1,0c0.5,0,0.5,0,1.1,0v-0.3c-0.3,0-0.3-0.2-0.3-0.4c0-0.2,0.1-0.3,0.2-0.4
			c0.2-0.3,0.6-0.7,0.9-1.1l1,1.3c0.2,0.3,0.2,0.3,0.2,0.4c0,0.1-0.1,0.3-0.4,0.3v0.3c0.3,0,0.9,0,1.2,0c0.4,0,0.4,0,1.1,0v-0.3
			c-0.6,0-0.8,0-1.1-0.4L-505.5,681.6z"/>
	</g>
	<g>
		<path id="g4-112" class="st0" d="M-499.7,686.4c-0.8,0-0.9,0-0.9-0.5v-2.1c0.2,0.3,0.7,0.8,1.5,0.8c1.4,0,2.6-1.2,2.6-2.7
			c0-1.5-1.1-2.7-2.4-2.7c-1.1,0-1.6,0.8-1.6,0.8v-0.8l-1.7,0.1v0.3c0.8,0,0.9,0.1,0.9,0.6v5.6c0,0.5-0.1,0.5-0.9,0.5v0.3
			c0.3,0,1,0,1.3,0c0.3,0,1,0,1.3,0V686.4z M-500.6,680.6c0-0.2,0-0.2,0.1-0.4c0.4-0.5,0.9-0.8,1.4-0.8c0.9,0,1.6,1.1,1.6,2.4
			c0,1.4-0.8,2.5-1.7,2.5c-0.4,0-0.7-0.2-1-0.4c-0.3-0.3-0.5-0.5-0.5-0.8V680.6z"/>
	</g>
	<g>
		<path id="g0-32" class="st0" d="M-485.1,699.2c0,0,0-0.1-0.1-0.1c-1.1-1.4-2.1-2.9-2.8-4.6c-1.6-3.7-2.2-7.9-2.2-13.1
			c0-5.1,0.6-9.6,2.4-13.5c0.7-1.5,1.6-2.9,2.7-4.2c0,0,0-0.1,0-0.1c0-0.1-0.1-0.1-0.3-0.1s-0.2,0-0.2,0c0,0-0.8,0.7-1.7,2
			c-2.1,2.9-3.1,6.5-3.7,10c-0.3,1.9-0.4,3.9-0.4,5.8c0,4.5,0.6,9,2.5,13.1c0.8,1.8,2,3.5,3.2,4.7c0.1,0.1,0.1,0.1,0.3,0.1
			C-485.2,699.3-485.1,699.3-485.1,699.2z"/>
	</g>
	<g>
		<path id="g0-16" class="st0" d="M-478.5,692c0,0,0.1,0.1,0.1,0.1h0.3c0,0,0.1,0,0.1-0.1c0,0,0-0.1,0-0.1c-0.4-0.4-1.1-1.1-1.8-2.4
			c-1.3-2.3-1.8-5.2-1.8-8.1c0-5.3,1.5-8.4,3.6-10.5c0,0,0-0.1,0-0.1c0-0.1-0.1-0.1-0.2-0.1c-0.2,0-0.2,0-0.3,0.1
			c-1.1,1-2.4,2.6-3.2,5.2c-0.5,1.6-0.8,3.5-0.8,5.5c0,2.8,0.5,6,2.4,8.8c0.3,0.5,0.8,1,0.8,1c0.1,0.1,0.3,0.3,0.4,0.4L-478.5,692z"
			/>
	</g>
	<g>
		<path id="g2-68" class="st0" d="M-473.6,675.4c-0.1,0.4-0.1,0.5-1,0.5c-0.2,0-0.3,0-0.3,0.2c0,0.1,0.1,0.1,0.3,0.1h3.8
			c2.4,0,4.8-2.5,4.8-5.2c0-1.7-1-3-2.7-3h-3.8c-0.2,0-0.3,0-0.3,0.2c0,0.1,0.1,0.1,0.3,0.1c0.7,0,0.7,0.1,0.7,0.2c0,0,0,0.1,0,0.3
			L-473.6,675.4z M-471,669c0.1-0.4,0.2-0.5,0.6-0.5h1.3c1.1,0,2.2,0.6,2.2,2.3c0,0.6-0.2,2.7-1.4,4c-0.3,0.4-1.2,1.2-2.6,1.2h-1.4
			c-0.2,0-0.2,0-0.3,0c-0.1,0-0.1,0-0.1-0.1c0-0.1,0-0.2,0-0.3L-471,669z"/>
	</g>
	<rect x="-476.3" y="681.2" class="st0" width="11.8" height="0.5"/>
	<g>
		<path id="g2-27" class="st0" d="M-470.3,688.1c0.2,0,0.5,0,0.5-0.4c0-0.3-0.2-0.3-0.4-0.3h-2.6c-1.8,0-3.1,2-3.1,3.4
			c0,1,0.7,1.9,1.7,1.9c1.4,0,3-1.5,3-3.3c0-0.5-0.1-0.9-0.4-1.3H-470.3z M-474.1,692.5c-0.6,0-1.1-0.5-1.1-1.3
			c0-0.7,0.4-3.1,2.2-3.1c0.5,0,1.1,0.3,1.1,1.2c0,0.4-0.2,1.4-0.6,2.1C-472.9,692.1-473.6,692.5-474.1,692.5z"/>
	</g>
	<g>
		<path id="g3-50" class="st0" d="M-467,687.5c0.1-0.1,0.5-0.4,0.6-0.5c0.5-0.5,1-0.9,1-1.6c0-0.9-0.8-1.6-1.8-1.6
			c-1,0-1.6,0.7-1.6,1.4c0,0.4,0.3,0.4,0.4,0.4c0.2,0,0.4-0.1,0.4-0.4c0-0.4-0.4-0.4-0.5-0.4c0.2-0.6,0.8-0.8,1.2-0.8
			c0.7,0,1.1,0.6,1.1,1.3c0,0.8-0.6,1.4-1.5,2.4l-1,1c-0.1,0.1-0.1,0.1-0.1,0.3h3.1l0.2-1.4h-0.2c0,0.2-0.1,0.6-0.2,0.7
			c0,0.1-0.7,0.1-0.8,0.1h-1.4L-467,687.5z"/>
	</g>
	<g>
		<path id="g0-17" class="st0" d="M-458.3,681.4c0-3.4-0.8-7.1-3.2-9.8c-0.2-0.2-0.6-0.7-0.9-0.9c-0.1-0.1-0.1-0.1-0.3-0.1
			c-0.1,0-0.2,0-0.2,0.1c0,0,0,0.1,0.1,0.1c0.4,0.4,1.1,1.1,1.8,2.4c1.3,2.3,1.8,5.2,1.8,8.1c0,5.2-1.4,8.4-3.6,10.5
			c0,0,0,0.1,0,0.1c0,0.1,0.1,0.1,0.2,0.1c0.2,0,0.2,0,0.3-0.1c1.1-1,2.4-2.6,3.2-5.2C-458.6,685.3-458.3,683.3-458.3,681.4z"/>
	</g>
	<g>
		<path id="g1-112" class="st0" d="M-455.8,674.8c-0.1,0.3-0.1,0.3-0.4,0.3c-0.1,0-0.2,0-0.2,0.2c0,0.1,0.1,0.1,0.1,0.1
			c0.1,0,0.1,0,0.7,0c0.6,0,0.7,0,0.8,0c0,0,0.2,0,0.2-0.2c0-0.1-0.1-0.1-0.2-0.1c-0.4,0-0.4,0-0.4-0.1c0-0.1,0.1-0.6,0.4-1.6
			c0.1,0.2,0.4,0.5,0.8,0.5c1,0,2-1.1,2-2.3c0-0.8-0.5-1.3-1.1-1.3c-0.5,0-0.9,0.3-1.1,0.6c-0.2-0.6-0.7-0.6-0.8-0.6
			c-0.3,0-0.5,0.2-0.6,0.4c-0.2,0.4-0.3,0.8-0.3,0.8c0,0.1,0.1,0.1,0.1,0.1c0.1,0,0.1,0,0.2-0.2c0.1-0.4,0.2-0.9,0.6-0.9
			c0.2,0,0.3,0.2,0.3,0.4c0,0.1,0,0.3,0,0.3L-455.8,674.8z M-454.3,671.4c0-0.1,0-0.2,0.2-0.3c0.3-0.4,0.6-0.5,0.9-0.5
			c0.4,0,0.5,0.4,0.5,0.7c0,0.3-0.2,1.1-0.4,1.6c-0.2,0.4-0.6,0.8-1,0.8c-0.5,0-0.7-0.6-0.7-0.7c0,0,0-0.1,0-0.1L-454.3,671.4z"/>
	</g>
	<g>
		<path id="g0-33" class="st0" d="M-444.8,681.4c0-4.5-0.6-9-2.5-13.1c-0.8-1.8-2-3.5-3.2-4.7c-0.1-0.1-0.1-0.1-0.3-0.1
			c-0.2,0-0.3,0-0.3,0.1c0,0,0,0.1,0.1,0.1c1.1,1.4,2.1,2.9,2.8,4.6c1.6,3.7,2.2,7.9,2.2,13.1c0,5.1-0.6,9.6-2.4,13.5
			c-0.7,1.5-1.6,2.9-2.7,4.2c0,0,0,0.1,0,0.1c0,0.1,0.1,0.1,0.3,0.1c0.2,0,0.2,0,0.2,0c0,0,0.8-0.7,1.7-2c2.1-2.9,3.1-6.5,3.7-10
			C-444.9,685.3-444.8,683.4-444.8,681.4z"/>
	</g>
</g>
</svg>
